^C:\USERS\DENIS\SOURCE\REPOS\PROJECT1\PROJECT1\MAIN.CPP
/c /ZI /JMC /nologo /W3 /WX- /diagnostics:classic /sdl /Od /Oy- /D _MBCS /Gm- /EHsc /RTC1 /MDd /GS /fp:precise /permissive- /Zc:wchar_t /Zc:forScope /Zc:inline /Fo"DEBUG\\" /Fd"DEBUG\VC141.PDB" /Gd /TP /analyze- /FC C:\USERS\DENIS\SOURCE\REPOS\PROJECT1\PROJECT1\MAIN.CPP
^C:\USERS\DENIS\SOURCE\REPOS\PROJECT1\PROJECT1\WINDOW.CPP
/c /ZI /JMC /nologo /W3 /WX- /diagnostics:classic /sdl /Od /Oy- /D _MBCS /Gm- /EHsc /RTC1 /MDd /GS /fp:precise /permissive- /Zc:wchar_t /Zc:forScope /Zc:inline /Fo"DEBUG\\" /Fd"DEBUG\VC141.PDB" /Gd /TP /analyze- /FC C:\USERS\DENIS\SOURCE\REPOS\PROJECT1\PROJECT1\WINDOW.CPP
^C:\USERS\DENIS\SOURCE\REPOS\PROJECT1\PROJECT1\GAME.CPP
/c /ZI /JMC /nologo /W3 /WX- /diagnostics:classic /sdl /Od /Oy- /D _MBCS /Gm- /EHsc /RTC1 /MDd /GS /fp:precise /permissive- /Zc:wchar_t /Zc:forScope /Zc:inline /Fo"DEBUG\\" /Fd"DEBUG\VC141.PDB" /Gd /TP /analyze- /FC C:\USERS\DENIS\SOURCE\REPOS\PROJECT1\PROJECT1\GAME.CPP
^C:\USERS\DENIS\SOURCE\REPOS\LORENZOALGORITHMSFML\PROJECT1\WINDOW.CPP
/c /ZI /JMC /nologo /W3 /WX- /diagnostics:classic /sdl /Od /Oy- /D _MBCS /Gm- /EHsc /RTC1 /MDd /GS /fp:precise /permissive- /Zc:wchar_t /Zc:forScope /Zc:inline /Fo"DEBUG\\" /Fd"DEBUG\VC141.PDB" /Gd /TP /analyze- /FC C:\USERS\DENIS\SOURCE\REPOS\LORENZOALGORITHMSFML\PROJECT1\WINDOW.CPP
^C:\USERS\DENIS\SOURCE\REPOS\LORENZOALGORITHMSFML\PROJECT1\SIMULATION.CPP
/c /ZI /JMC /nologo /W3 /WX- /diagnostics:classic /sdl /Od /Oy- /D _MBCS /Gm- /EHsc /RTC1 /MDd /GS /fp:precise /permissive- /Zc:wchar_t /Zc:forScope /Zc:inline /Fo"DEBUG\\" /Fd"DEBUG\VC141.PDB" /Gd /TP /analyze- /FC C:\USERS\DENIS\SOURCE\REPOS\LORENZOALGORITHMSFML\PROJECT1\SIMULATION.CPP
^C:\USERS\DENIS\SOURCE\REPOS\LORENZOALGORITHMSFML\PROJECT1\GAME.CPP
/c /ZI /JMC /nologo /W3 /WX- /diagnostics:classic /sdl /Od /Oy- /D _MBCS /Gm- /EHsc /RTC1 /MDd /GS /fp:precise /permissive- /Zc:wchar_t /Zc:forScope /Zc:inline /Fo"DEBUG\\" /Fd"DEBUG\VC141.PDB" /Gd /TP /analyze- /FC C:\USERS\DENIS\SOURCE\REPOS\LORENZOALGORITHMSFML\PROJECT1\GAME.CPP
^C:\USERS\DENIS\SOURCE\REPOS\LORENZOALGORITHMSFML\PROJECT1\MAIN.CPP
/c /ZI /JMC /nologo /W3 /WX- /diagnostics:classic /sdl /Od /Oy- /D _MBCS /Gm- /EHsc /RTC1 /MDd /GS /fp:precise /permissive- /Zc:wchar_t /Zc:forScope /Zc:inline /Fo"DEBUG\\" /Fd"DEBUG\VC141.PDB" /Gd /TP /analyze- /FC C:\USERS\DENIS\SOURCE\REPOS\LORENZOALGORITHMSFML\PROJECT1\MAIN.CPP
